\relax 
\providecommand\hyper@newdestlabel[2]{}
\providecommand*\new@tpo@label[2]{}
\catcode `"\active 
\AC@reset@newl@bel
\providecommand\HyperFirstAtBeginDocument{\AtBeginDocument}
\HyperFirstAtBeginDocument{\ifx\hyper@anchor\@undefined
\global\let\oldcontentsline\contentsline
\gdef\contentsline#1#2#3#4{\oldcontentsline{#1}{#2}{#3}}
\global\let\oldnewlabel\newlabel
\gdef\newlabel#1#2{\newlabelxx{#1}#2}
\gdef\newlabelxx#1#2#3#4#5#6{\oldnewlabel{#1}{{#2}{#3}}}
\AtEndDocument{\ifx\hyper@anchor\@undefined
\let\contentsline\oldcontentsline
\let\newlabel\oldnewlabel
\fi}
\fi}
\global\let\hyper@last\relax 
\gdef\HyperFirstAtBeginDocument#1{#1}
\providecommand\HyField@AuxAddToFields[1]{}
\providecommand\HyField@AuxAddToCoFields[2]{}
\citation{pixabay}
\select@language{ngerman}
\@writefile{toc}{\select@language{ngerman}}
\@writefile{lof}{\select@language{ngerman}}
\@writefile{lot}{\select@language{ngerman}}
\citation{fuchss}
\citation{master}
\citation{fuchss}
\citation{fuchss}
\citation{fuchss}
\citation{cohlab}
\citation{duden}
\citation{droidlife}
\citation{fuchss}
\citation{fuchss}
\citation{fuchss}
\citation{fuchss}
\citation{fuchss}
\citation{fuchss}
\citation{adisoft}
\citation{fuchss}
\citation{fuchss}
\citation{fuchss}
\citation{fuchss}
\citation{fuchss}
\citation{fuchss}
\citation{fuchss}
\citation{fuchss}
\citation{fuchss}
\citation{fuchss}
\citation{fuchss}
\citation{fuchss}
\citation{fuchss}
\citation{fuchss}
\citation{fuchss}
\citation{fuchss}
\citation{fuchss}
\citation{fuchss}
\citation{fuchss}
\citation{fuchss}
\citation{fuchss}
\citation{fuchss}
\citation{fuchss}
\citation{fuchss}
\citation{fuchss}
\citation{fuchss}
\citation{fuchss}
\citation{fuchss}
\citation{fuchss}
\citation{Schritt 2}
\citation{Schritt 3}
\@writefile{toc}{\contentsline {section}{\numberline {I}Abbildungsverzeichnis}{I}{section.I}}
\citation{fuchss}
\citation{fuchss}
\citation{fuchss}
\citation{fuchss}
\citation{fuchss}
\citation{fuchss}
\citation{fuchss}
\citation{fuchss}
\citation{fuchss}
\citation{fuchss}
\citation{fuchss}
\citation{fuchss}
\citation{fuchss}
\citation{fuchss}
\citation{fuchss}
\citation{fuchss}
\citation{fuchss}
\citation{fuchss}
\citation{fuchss}
\citation{dsplog}
\citation{wikipedia}
\citation{wikipedia}
\citation{fuchss}
\citation{fuchss}
\citation{fuchss}
\citation{pixabay}
\citation{fuchss}
\citation{fuchss}
\citation{fuchss}
\citation{fuchss}
\citation{fuchss}
\citation{fuchss}
\citation{fuchss}
\citation{fuchss}
\citation{fuchss}
\citation{fuchss}
\citation{fuchss}
\citation{wikipedia}
\@writefile{toc}{\contentsline {section}{\numberline {II}Tabellenverzeichnis}{IV}{section.II}}
\@writefile{toc}{\contentsline {section}{V Abk\IeC {\"u}rzungsverzeichnis}{1}{section.II}}
\@writefile{toc}{\contentsline {section}{\numberline {1}Mobilit\IeC {\"a}t}{1}{section.1}}
\@writefile{toc}{\contentsline {subsection}{\numberline {1.1}Mobile Computing}{1}{subsection.1.1}}
\@writefile{toc}{\contentsline {subsection}{\numberline {1.2}Native App }{1}{subsection.1.2}}
\citation{fuchss}
\citation{fuchss}
\@writefile{lof}{\contentsline {figure}{\numberline {1}{\ignorespaces Architektur einer nativen App \cite  {fuchss}}}{2}{figure.1}}
\newlabel{fig:apps_nativ}{{1}{2}{Architektur einer nativen App \cite {fuchss}}{figure.1}{}}
\@writefile{toc}{\contentsline {subsection}{\numberline {1.3}Web-App }{2}{subsection.1.3}}
\citation{fuchss}
\citation{fuchss}
\@writefile{lof}{\contentsline {figure}{\numberline {2}{\ignorespaces Architektur einer Web-App \cite  {fuchss}}}{3}{figure.2}}
\newlabel{fig:apps_webapp}{{2}{3}{Architektur einer Web-App \cite {fuchss}}{figure.2}{}}
\@writefile{toc}{\contentsline {subsection}{\numberline {1.4}Hybrid-App }{3}{subsection.1.4}}
\citation{fuchss}
\citation{fuchss}
\@writefile{lof}{\contentsline {figure}{\numberline {3}{\ignorespaces Architektur einer Hybrid-App \cite  {fuchss}}}{4}{figure.3}}
\newlabel{fig:apps_hybrid}{{3}{4}{Architektur einer Hybrid-App \cite {fuchss}}{figure.3}{}}
\@writefile{toc}{\contentsline {subsection}{\numberline {1.5}Vergleich}{4}{subsection.1.5}}
\citation{cohlab}
\citation{cohlab}
\@writefile{lot}{\contentsline {table}{\numberline {1}{\ignorespaces Vergleich nativ-web-hybrid}}{5}{table.1}}
\newlabel{tab:apps_comparison}{{1}{5}{Vergleich nativ-web-hybrid}{table.1}{}}
\@writefile{toc}{\contentsline {subsection}{\numberline {1.6}Augmented Reality }{5}{subsection.1.6}}
\@writefile{lof}{\contentsline {figure}{\numberline {4}{\ignorespaces Augmented Reality \cite  {cohlab}}}{5}{figure.4}}
\newlabel{fig:augmented_1}{{4}{5}{Augmented Reality \cite {cohlab}}{figure.4}{}}
\citation{peeple}
\citation{duden}
\citation{duden}
\@writefile{lof}{\contentsline {figure}{\numberline {5}{\ignorespaces Gefahren von Augmented Reality \cite  {duden}}}{6}{figure.5}}
\newlabel{fig:augmented_danger}{{5}{6}{Gefahren von Augmented Reality \cite {duden}}{figure.5}{}}
\@writefile{toc}{\contentsline {subsection}{\numberline {1.7}Limitierende Faktoren}{6}{subsection.1.7}}
\@writefile{toc}{\contentsline {subsubsection}{\numberline {1.7.1}Konnektivit\IeC {\"a}t}{6}{subsubsection.1.7.1}}
\@writefile{toc}{\contentsline {subsubsection}{\numberline {1.7.2}Leistung}{6}{subsubsection.1.7.2}}
\citation{droidlife}
\citation{droidlife}
\@writefile{toc}{\contentsline {subsubsection}{\numberline {1.7.3}Vertrauensw\IeC {\"u}rdigkeit}{7}{subsubsection.1.7.3}}
\@writefile{toc}{\contentsline {subsubsection}{\numberline {1.7.4}Abw\IeC {\"a}rtskompatibilit\IeC {\"a}t}{7}{subsubsection.1.7.4}}
\@writefile{lof}{\contentsline {figure}{\numberline {6}{\ignorespaces Android Versionen Anteile \cite  {droidlife}}}{7}{figure.6}}
\newlabel{fig:android_verteilung}{{6}{7}{Android Versionen Anteile \cite {droidlife}}{figure.6}{}}
\@writefile{toc}{\contentsline {section}{\numberline {2}Architekturen}{8}{section.2}}
\@writefile{toc}{\contentsline {subsection}{\numberline {2.1}Anpassung}{8}{subsection.2.1}}
\@writefile{toc}{\contentsline {subsubsection}{\numberline {2.1.1}Anpassung Betriebssystem}{8}{subsubsection.2.1.1}}
\@writefile{toc}{\contentsline {subsubsection}{\numberline {2.1.2}Anpassung Anwendung}{8}{subsubsection.2.1.2}}
\citation{fuchss}
\citation{fuchss}
\citation{fuchss}
\citation{fuchss}
\@writefile{toc}{\contentsline {subsection}{\numberline {2.2}Application Awareness}{9}{subsection.2.2}}
\@writefile{toc}{\contentsline {subsection}{\numberline {2.3}3+1 View Model }{9}{subsection.2.3}}
\@writefile{lof}{\contentsline {figure}{\numberline {7}{\ignorespaces Das 3+1 View Model \cite  {fuchss} }}{9}{figure.7}}
\newlabel{fig_3_1_view_model}{{7}{9}{Das 3+1 View Model \ifx \hfuzz fuchss\hfuzz \else \cite {fuchss} \fi }{figure.7}{}}
\citation{fuchss}
\citation{fuchss}
\@writefile{lof}{\contentsline {figure}{\numberline {8}{\ignorespaces Adaptionsmechanismen \cite  {fuchss} }}{10}{figure.8}}
\newlabel{fig:adaptmech}{{8}{10}{Adaptionsmechanismen \ifx \hfuzz fuchss\hfuzz \else \cite {fuchss} \fi }{figure.8}{}}
\@writefile{toc}{\contentsline {subsection}{\numberline {2.4}Adaptionsmechanismen}{10}{subsection.2.4}}
\citation{fuchss}
\citation{fuchss}
\@writefile{lof}{\contentsline {figure}{\numberline {9}{\ignorespaces Adaptionsverfahren \cite  {fuchss} }}{11}{figure.9}}
\newlabel{fig:adaptionsverfahren}{{9}{11}{Adaptionsverfahren \ifx \hfuzz fuchss\hfuzz \else \cite {fuchss} \fi }{figure.9}{}}
\@writefile{toc}{\contentsline {subsection}{\numberline {2.5}Caching  und Hoarding }{11}{subsection.2.5}}
\@writefile{toc}{\contentsline {subsection}{\numberline {2.6}Modelle}{11}{subsection.2.6}}
\@writefile{toc}{\contentsline {subsubsection}{\numberline {2.6.1}Mobile Client/Server Modell }{11}{subsubsection.2.6.1}}
\citation{fuchss}
\citation{fuchss}
\@writefile{lof}{\contentsline {figure}{\numberline {10}{\ignorespaces Mobiles Client-Server Modell \cite  {fuchss} }}{12}{figure.10}}
\newlabel{fig:movile_client_server}{{10}{12}{Mobiles Client-Server Modell \ifx \hfuzz fuchss\hfuzz \else \cite {fuchss} \fi }{figure.10}{}}
\@writefile{toc}{\contentsline {subsubsection}{\numberline {2.6.2}Client/Agent/Server Modell }{12}{subsubsection.2.6.2}}
\@writefile{lof}{\contentsline {figure}{\numberline {11}{\ignorespaces Client-Agent-Server Modell \cite  {fuchss} }}{12}{figure.11}}
\newlabel{fig:client_agent_server}{{11}{12}{Client-Agent-Server Modell \ifx \hfuzz fuchss\hfuzz \else \cite {fuchss} \fi }{figure.11}{}}
\citation{fuchss}
\citation{fuchss}
\@writefile{toc}{\contentsline {subsubsection}{\numberline {2.6.3}Client/Intercept/Server Modell }{13}{subsubsection.2.6.3}}
\citation{adisoft}
\citation{adisoft}
\citation{adisoft}
\@writefile{lof}{\contentsline {figure}{\numberline {12}{\ignorespaces Client-Interceptor-Server Modell \cite  {fuchss} }}{14}{figure.12}}
\newlabel{fig:modell_interceptor}{{12}{14}{Client-Interceptor-Server Modell \ifx \hfuzz fuchss\hfuzz \else \cite {fuchss} \fi }{figure.12}{}}
\@writefile{lof}{\contentsline {figure}{\numberline {13}{\ignorespaces Beispiel eines Intercept Modells \cite  {adisoft} }}{14}{figure.13}}
\newlabel{fig:modelle_intercept_bsp}{{13}{14}{Beispiel eines Intercept Modells \ifx \hfuzz adisoft\hfuzz \else \cite {adisoft} \fi }{figure.13}{}}
\citation{fuchss}
\citation{fuchss}
\citation{fuchss}
\citation{fuchss}
\@writefile{toc}{\contentsline {subsubsection}{\numberline {2.6.4}Peer-to-Peer Modell }{15}{subsubsection.2.6.4}}
\@writefile{lof}{\contentsline {figure}{\numberline {14}{\ignorespaces Peer-to-Peer Model \cite  {fuchss} }}{15}{figure.14}}
\newlabel{fig:peer}{{14}{15}{Peer-to-Peer Model \ifx \hfuzz fuchss\hfuzz \else \cite {fuchss} \fi }{figure.14}{}}
\@writefile{toc}{\contentsline {subsubsection}{\numberline {2.6.5}Zusammenfassung}{15}{subsubsection.2.6.5}}
\citation{fuchss}
\citation{fuchss}
\@writefile{lof}{\contentsline {figure}{\numberline {15}{\ignorespaces Beispiele f\IeC {\"u}r Agenten \cite  {fuchss} }}{16}{figure.15}}
\newlabel{fig:modelle_fazit}{{15}{16}{Beispiele für Agenten \ifx \hfuzz fuchss\hfuzz \else \cite {fuchss} \fi }{figure.15}{}}
\@writefile{toc}{\contentsline {subsubsection}{\numberline {2.6.6}Pipes  and Filters }{16}{subsubsection.2.6.6}}
\@writefile{lof}{\contentsline {figure}{\numberline {16}{\ignorespaces Pipes-and-Filters Entwurfsmuster \cite  {fuchss} }}{16}{figure.16}}
\newlabel{fig:pipes_filters}{{16}{16}{Pipes-and-Filters Entwurfsmuster \ifx \hfuzz fuchss\hfuzz \else \cite {fuchss} \fi }{figure.16}{}}
\@writefile{toc}{\contentsline {paragraph}{\numberline {2.6.6.1}Filter}{16}{paragraph.2.6.6.1}}
\citation{fuchss}
\citation{fuchss}
\citation{fuchss}
\citation{fuchss}
\@writefile{toc}{\contentsline {paragraph}{\numberline {2.6.6.2}Pipes}{17}{paragraph.2.6.6.2}}
\@writefile{lof}{\contentsline {figure}{\numberline {17}{\ignorespaces Pipes als Verbinder zwischen Komponenten und Filtern \cite  {fuchss} }}{17}{figure.17}}
\newlabel{fig:pipes_details}{{17}{17}{Pipes als Verbinder zwischen Komponenten und Filtern \ifx \hfuzz fuchss\hfuzz \else \cite {fuchss} \fi }{figure.17}{}}
\@writefile{toc}{\contentsline {subsubsection}{\numberline {2.6.7}FIPA }{17}{subsubsection.2.6.7}}
\citation{fuchss}
\citation{fuchss}
\@writefile{lof}{\contentsline {figure}{\numberline {18}{\ignorespaces FIPA \cite  {fuchss} }}{18}{figure.18}}
\newlabel{fig:fipa}{{18}{18}{FIPA \ifx \hfuzz fuchss\hfuzz \else \cite {fuchss} \fi }{figure.18}{}}
\citation{fuchss}
\citation{fuchss}
\@writefile{lof}{\contentsline {figure}{\numberline {19}{\ignorespaces Lifecycle eines FIPA-Agenten \cite  {fuchss} }}{19}{figure.19}}
\newlabel{fig:fipa_lifecycle}{{19}{19}{Lifecycle eines FIPA-Agenten \ifx \hfuzz fuchss\hfuzz \else \cite {fuchss} \fi }{figure.19}{}}
\@writefile{toc}{\contentsline {subsubsection}{\numberline {2.6.8}Broker Pattern }{19}{subsubsection.2.6.8}}
\@writefile{lof}{\contentsline {figure}{\numberline {20}{\ignorespaces Broker \cite  {fuchss} }}{19}{figure.20}}
\newlabel{fig:broker_text}{{20}{19}{Broker \ifx \hfuzz fuchss\hfuzz \else \cite {fuchss} \fi }{figure.20}{}}
\citation{fuchss}
\citation{fuchss}
\@writefile{lof}{\contentsline {figure}{\numberline {21}{\ignorespaces UML Klassendiagramm eines Brokers \cite  {fuchss} }}{20}{figure.21}}
\newlabel{fig:broker_uml}{{21}{20}{UML Klassendiagramm eines Brokers \ifx \hfuzz fuchss\hfuzz \else \cite {fuchss} \fi }{figure.21}{}}
\citation{fuchss}
\citation{fuchss}
\citation{fuchss}
\citation{fuchss}
\@writefile{toc}{\contentsline {paragraph}{\numberline {2.6.8.1}Schritt 1 - Server meldet Dienst beim Broker an}{21}{paragraph.2.6.8.1}}
\@writefile{lof}{\contentsline {figure}{\numberline {22}{\ignorespaces Schritt 1 \cite  {fuchss} }}{21}{figure.22}}
\newlabel{fig:broker_step1}{{22}{21}{Schritt 1 \ifx \hfuzz fuchss\hfuzz \else \cite {fuchss} \fi }{figure.22}{}}
\@writefile{toc}{\contentsline {paragraph}{\numberline {2.6.8.2}Schritt 2 - Client schickt Anfrage}{21}{paragraph.2.6.8.2}}
\citation{fuchss}
\citation{fuchss}
\@writefile{lof}{\contentsline {figure}{\numberline {23}{\ignorespaces Schritt 2 \cite  {fuchss} }}{22}{figure.23}}
\newlabel{fig:broker_step2}{{23}{22}{Schritt 2 \ifx \hfuzz fuchss\hfuzz \else \cite {fuchss} \fi }{figure.23}{}}
\@writefile{toc}{\contentsline {paragraph}{\numberline {2.6.8.3}Schritt 3 - Broker kommunizieren untereinander}{22}{paragraph.2.6.8.3}}
\@writefile{lof}{\contentsline {figure}{\numberline {24}{\ignorespaces Schritt 3 \cite  {fuchss} }}{22}{figure.24}}
\newlabel{fig:broker_step3}{{24}{22}{Schritt 3 \ifx \hfuzz fuchss\hfuzz \else \cite {fuchss} \fi }{figure.24}{}}
\citation{fuchss}
\citation{fuchss}
\@writefile{toc}{\contentsline {section}{\numberline {3}Datenmanagement}{23}{section.3}}
\@writefile{lof}{\contentsline {figure}{\numberline {25}{\ignorespaces Zustands\IeC {\"u}berg\IeC {\"a}nge \cite  {fuchss} }}{23}{figure.25}}
\newlabel{fig:datamanagement1}{{25}{23}{Zustandsübergänge \ifx \hfuzz fuchss\hfuzz \else \cite {fuchss} \fi }{figure.25}{}}
\@writefile{toc}{\contentsline {subsection}{\numberline {3.1}Hoarding}{23}{subsection.3.1}}
\citation{fuchss}
\@writefile{toc}{\contentsline {subsection}{\numberline {3.2}Verfahren}{24}{subsection.3.2}}
\@writefile{toc}{\contentsline {subsubsection}{\numberline {3.2.1}LRU  - least recently used}{24}{subsubsection.3.2.1}}
\@writefile{toc}{\contentsline {subsubsection}{\numberline {3.2.2}LOU  - least often used}{24}{subsubsection.3.2.2}}
\@writefile{toc}{\contentsline {subsection}{\numberline {3.3}Prefetching}{24}{subsection.3.3}}
\citation{fuchss}
\citation{fuchss}
\citation{fuchss}
\citation{fuchss}
\citation{fuchss}
\@writefile{toc}{\contentsline {subsection}{\numberline {3.4}Cache}{25}{subsection.3.4}}
\@writefile{lof}{\contentsline {figure}{\numberline {26}{\ignorespaces LRU mit Hashtabelle 1D \cite  {fuchss} }}{25}{figure.26}}
\newlabel{fig:lru_hash}{{26}{25}{LRU mit Hashtabelle 1D \ifx \hfuzz fuchss\hfuzz \else \cite {fuchss} \fi }{figure.26}{}}
\citation{fuchss}
\citation{fuchss}
\@writefile{lof}{\contentsline {figure}{\numberline {27}{\ignorespaces LOU mit Hashtabelle 2D \cite  {fuchss} }}{26}{figure.27}}
\newlabel{fig:lou_hash}{{27}{26}{LOU mit Hashtabelle 2D \ifx \hfuzz fuchss\hfuzz \else \cite {fuchss} \fi }{figure.27}{}}
\citation{fuchss}
\citation{fuchss}
\@writefile{lof}{\contentsline {figure}{\numberline {28}{\ignorespaces Cache mit Priorisierung Schritt 1 \cite  {fuchss} }}{27}{figure.28}}
\newlabel{fig:cache_prio1}{{28}{27}{Cache mit Priorisierung Schritt 1 \ifx \hfuzz fuchss\hfuzz \else \cite {fuchss} \fi }{figure.28}{}}
\citation{fuchss}
\citation{fuchss}
\@writefile{lof}{\contentsline {figure}{\numberline {29}{\ignorespaces Cache mit Priorisierung Schritt 2 \cite  {fuchss} }}{28}{figure.29}}
\newlabel{fig:cache_prio2}{{29}{28}{Cache mit Priorisierung Schritt 2 \ifx \hfuzz fuchss\hfuzz \else \cite {fuchss} \fi }{figure.29}{}}
\@writefile{toc}{\contentsline {subsubsection}{\numberline {3.4.1}Positionierung}{28}{subsubsection.3.4.1}}
\@writefile{toc}{\contentsline {subsubsection}{\numberline {3.4.2}Architektur}{29}{subsubsection.3.4.2}}
\@writefile{lof}{\contentsline {figure}{\numberline {30}{\ignorespaces Typisches Architekturbeispiel \cite  {fuchss} }}{29}{figure.30}}
\newlabel{fig:cache_bsp}{{30}{29}{Typisches Architekturbeispiel \ifx \hfuzz fuchss\hfuzz \else \cite {fuchss} \fi }{figure.30}{}}
\@writefile{toc}{\contentsline {subsubsection}{\numberline {3.4.3}Emulation}{29}{subsubsection.3.4.3}}
\citation{fuchss}
\citation{fuchss}
\@writefile{toc}{\contentsline {paragraph}{\numberline {3.4.3.1}Verfahren zur Optimierung von Speicherplatz bzw. Gr\IeC {\"o}\IeC {\ss }e}{30}{paragraph.3.4.3.1}}
\@writefile{lof}{\contentsline {figure}{\numberline {31}{\ignorespaces Peephole-Optimization  \cite  {fuchss} }}{30}{figure.31}}
\newlabel{fig:peephole}{{31}{30}{Peephole-Optimization \index {Peephole-Optimization} \ifx \hfuzz fuchss\hfuzz \else \cite {fuchss} \fi }{figure.31}{}}
\@writefile{toc}{\contentsline {paragraph}{\numberline {3.4.3.2}Reintegration }{30}{paragraph.3.4.3.2}}
\@writefile{toc}{\contentsline {subsection}{\numberline {3.5}Validierung}{30}{subsection.3.5}}
\@writefile{toc}{\contentsline {subsection}{\numberline {3.6}Zustandslose Validierung }{31}{subsection.3.6}}
\@writefile{toc}{\contentsline {subsubsection}{\numberline {3.6.1}Broadcasting Timestamps}{31}{subsubsection.3.6.1}}
\@writefile{toc}{\contentsline {paragraph}{\numberline {3.6.1.1}Optimierung bzgl. langer Disconnects}{32}{paragraph.3.6.1.1}}
\@writefile{toc}{\contentsline {paragraph}{\numberline {3.6.1.2}Optimierung  bzgl. Latenzzeit}{32}{paragraph.3.6.1.2}}
\@writefile{toc}{\contentsline {paragraph}{\numberline {3.6.1.3}Optimierung bzgl. Bandbreite}{33}{paragraph.3.6.1.3}}
\@writefile{toc}{\contentsline {subsection}{\numberline {3.7}Zustandsbasierte Validierung }{33}{subsection.3.7}}
\@writefile{toc}{\contentsline {subsubsection}{\numberline {3.7.1}Callback Breaks }{33}{subsubsection.3.7.1}}
\citation{fuchss}
\citation{fuchss}
\citation{fuchss}
\citation{fuchss}
\@writefile{toc}{\contentsline {subsubsection}{\numberline {3.7.2}Observer Pattern }{34}{subsubsection.3.7.2}}
\@writefile{lof}{\contentsline {figure}{\numberline {32}{\ignorespaces Das Observer Pattern \cite  {fuchss} }}{34}{figure.32}}
\newlabel{fig:observer1}{{32}{34}{Das Observer Pattern \ifx \hfuzz fuchss\hfuzz \else \cite {fuchss} \fi }{figure.32}{}}
\@writefile{lof}{\contentsline {figure}{\numberline {33}{\ignorespaces Das Observer Pattern \cite  {fuchss} }}{34}{figure.33}}
\newlabel{fig:observer2}{{33}{34}{Das Observer Pattern \ifx \hfuzz fuchss\hfuzz \else \cite {fuchss} \fi }{figure.33}{}}
\citation{fuchss}
\citation{fuchss}
\@writefile{toc}{\contentsline {subsection}{\numberline {3.8}Fazit zu Cache-Updates }{35}{subsection.3.8}}
\@writefile{toc}{\contentsline {subsection}{\numberline {3.9}Weak Connectivity }{35}{subsection.3.9}}
\@writefile{lof}{\contentsline {figure}{\numberline {34}{\ignorespaces Weak-Connectivity \cite  {fuchss} }}{36}{figure.34}}
\newlabel{fig:weak_connectivity}{{34}{36}{Weak-Connectivity \ifx \hfuzz fuchss\hfuzz \else \cite {fuchss} \fi }{figure.34}{}}
\citation{fuchss}
\@writefile{toc}{\contentsline {section}{\numberline {4}Transaktionsmodelle }{37}{section.4}}
\@writefile{toc}{\contentsline {subsection}{\numberline {4.1}ACID }{37}{subsection.4.1}}
\@writefile{toc}{\contentsline {subsection}{\numberline {4.2}Arten}{37}{subsection.4.2}}
\@writefile{toc}{\contentsline {subsection}{\numberline {4.3}Implementierung}{37}{subsection.4.3}}
\citation{fuchss}
\citation{fuchss}
\citation{fuchss}
\citation{fuchss}
\@writefile{toc}{\contentsline {subsubsection}{\numberline {4.3.1}Eigener Arbeitsbereich}{38}{subsubsection.4.3.1}}
\@writefile{toc}{\contentsline {subsubsection}{\numberline {4.3.2}Writeahead }{38}{subsubsection.4.3.2}}
\@writefile{toc}{\contentsline {subsubsection}{\numberline {4.3.3}Nebenl\IeC {\"a}ufigkeit }{38}{subsubsection.4.3.3}}
\@writefile{lof}{\contentsline {figure}{\numberline {35}{\ignorespaces Manager f\IeC {\"u}r Transaktionen \cite  {fuchss} }}{38}{figure.35}}
\newlabel{fig:transact_nebenl}{{35}{38}{Manager für Transaktionen \ifx \hfuzz fuchss\hfuzz \else \cite {fuchss} \fi }{figure.35}{}}
\@writefile{lof}{\contentsline {figure}{\numberline {36}{\ignorespaces Konflikte durch Schreiboperationen \cite  {fuchss} }}{38}{figure.36}}
\newlabel{fig:transact_konfl}{{36}{38}{Konflikte durch Schreiboperationen \ifx \hfuzz fuchss\hfuzz \else \cite {fuchss} \fi }{figure.36}{}}
\citation{fuchss}
\@writefile{toc}{\contentsline {subsubsection}{\numberline {4.3.4}Optimistisch oder pessimistisch}{39}{subsubsection.4.3.4}}
\@writefile{toc}{\contentsline {subsection}{\numberline {4.4}Optimistische Nebenl\IeC {\"a}ufigkeitskontrolle}{39}{subsection.4.4}}
\@writefile{toc}{\contentsline {subsection}{\numberline {4.5}Aufbau von Transaktionen }{39}{subsection.4.5}}
\citation{fuchss}
\citation{fuchss}
\citation{fuchss}
\citation{fuchss}
\@writefile{lof}{\contentsline {figure}{\numberline {37}{\ignorespaces M\IeC {\"o}gliche Zusammenh\IeC {\"a}nge zwischen Schreib- und Lesephase \cite  {fuchss} }}{40}{figure.37}}
\newlabel{fig:trans_phases}{{37}{40}{Mögliche Zusammenhänge zwischen Schreib- und Lesephase \ifx \hfuzz fuchss\hfuzz \else \cite {fuchss} \fi }{figure.37}{}}
\@writefile{lof}{\contentsline {figure}{\numberline {38}{\ignorespaces M\IeC {\"o}gliche Phasenkombinationen \cite  {fuchss} }}{40}{figure.38}}
\newlabel{fig:trans_moegl}{{38}{40}{Mögliche Phasenkombinationen \ifx \hfuzz fuchss\hfuzz \else \cite {fuchss} \fi }{figure.38}{}}
\citation{fuchss}
\citation{fuchss}
\citation{fuchss}
\citation{fuchss}
\citation{fuchss}
\citation{fuchss}
\@writefile{lof}{\contentsline {figure}{\numberline {39}{\ignorespaces Praktisch relevante Kombinationen von Transaktionen, bei denen sich die Schreib- und Lesephasen \IeC {\"u}berdecken \cite  {fuchss} }}{41}{figure.39}}
\newlabel{fig:trans_uebrig}{{39}{41}{Praktisch relevante Kombinationen von Transaktionen, bei denen sich die Schreib- und Lesephasen überdecken \ifx \hfuzz fuchss\hfuzz \else \cite {fuchss} \fi }{figure.39}{}}
\@writefile{lof}{\contentsline {figure}{\numberline {40}{\ignorespaces Kombinationen von sich verdeckenden Lesephasen \cite  {fuchss} }}{41}{figure.40}}
\newlabel{fig:coll}{{40}{41}{Kombinationen von sich verdeckenden Lesephasen \ifx \hfuzz fuchss\hfuzz \else \cite {fuchss} \fi }{figure.40}{}}
\citation{fuchss}
\citation{fuchss}
\citation{Schritt 2}
\citation{Schritt 2}
\citation{Schritt 3}
\citation{Schritt 3}
\@writefile{lof}{\contentsline {figure}{\numberline {41}{\ignorespaces Kombinationen von sich schneidenden Lesephasen \cite  {fuchss} }}{42}{figure.41}}
\newlabel{fig:coll2}{{41}{42}{Kombinationen von sich schneidenden Lesephasen \ifx \hfuzz fuchss\hfuzz \else \cite {fuchss} \fi }{figure.41}{}}
\@writefile{toc}{\contentsline {subsubsection}{\numberline {4.5.1}Absicherung }{42}{subsubsection.4.5.1}}
\@writefile{lof}{\contentsline {figure}{\numberline {42}{\ignorespaces Schritt 1 \cite  {fuchss} }}{42}{figure.42}}
\newlabel{fig:trans_v1}{{42}{42}{Schritt 1 \ifx \hfuzz fuchss\hfuzz \else \cite {fuchss} \fi }{figure.42}{}}
\@writefile{lof}{\contentsline {figure}{\numberline {43}{\ignorespaces  \cite  {Schritt 2} }}{42}{figure.43}}
\newlabel{fig:trans_v2}{{43}{42}{\ifx \hfuzz Schritt 2\hfuzz \else \cite {Schritt 2} \fi }{figure.43}{}}
\citation{fuchss}
\citation{fuchss}
\citation{fuchss}
\citation{fuchss}
\citation{fuchss}
\citation{fuchss}
\@writefile{lof}{\contentsline {figure}{\numberline {44}{\ignorespaces  \cite  {Schritt 3} }}{43}{figure.44}}
\newlabel{fig:trans_v3}{{44}{43}{\ifx \hfuzz Schritt 3\hfuzz \else \cite {Schritt 3} \fi }{figure.44}{}}
\@writefile{toc}{\contentsline {subsubsection}{\numberline {4.5.2}Umsetzung }{43}{subsubsection.4.5.2}}
\@writefile{lof}{\contentsline {figure}{\numberline {45}{\ignorespaces Read \cite  {fuchss} }}{43}{figure.45}}
\newlabel{fig:trimpl_read}{{45}{43}{Read \ifx \hfuzz fuchss\hfuzz \else \cite {fuchss} \fi }{figure.45}{}}
\@writefile{lof}{\contentsline {figure}{\numberline {46}{\ignorespaces Write \cite  {fuchss} }}{43}{figure.46}}
\newlabel{fig:trimpl_write}{{46}{43}{Write \ifx \hfuzz fuchss\hfuzz \else \cite {fuchss} \fi }{figure.46}{}}
\citation{fuchss}
\citation{fuchss}
\citation{fuchss}
\citation{fuchss}
\citation{fuchss}
\@writefile{lof}{\contentsline {figure}{\numberline {47}{\ignorespaces Create \cite  {fuchss} }}{44}{figure.47}}
\newlabel{fig:trimpl_create}{{47}{44}{Create \ifx \hfuzz fuchss\hfuzz \else \cite {fuchss} \fi }{figure.47}{}}
\@writefile{lof}{\contentsline {figure}{\numberline {48}{\ignorespaces Delete \cite  {fuchss} }}{44}{figure.48}}
\newlabel{fig:trimpl_delete}{{48}{44}{Delete \ifx \hfuzz fuchss\hfuzz \else \cite {fuchss} \fi }{figure.48}{}}
\@writefile{toc}{\contentsline {subsubsection}{\numberline {4.5.3}Die Linearisierung $\pi $ }{44}{subsubsection.4.5.3}}
\@writefile{lof}{\contentsline {figure}{\numberline {49}{\ignorespaces Big Picture \cite  {fuchss} }}{45}{figure.49}}
\newlabel{fig:trans_big_picture}{{49}{45}{Big Picture \ifx \hfuzz fuchss\hfuzz \else \cite {fuchss} \fi }{figure.49}{}}
\citation{fuchss}
\citation{fuchss}
\@writefile{toc}{\contentsline {section}{\numberline {5}Exkurs - Praktische Umsetzung Adaptionsmechanismen }{46}{section.5}}
\@writefile{toc}{\contentsline {subsection}{\numberline {5.1}\IeC {\"U}berlegung}{46}{subsection.5.1}}
\@writefile{lof}{\contentsline {figure}{\numberline {50}{\ignorespaces Erste \IeC {\"U}berlegung \cite  {fuchss} }}{46}{figure.50}}
\newlabel{fig:exk1}{{50}{46}{Erste Überlegung \ifx \hfuzz fuchss\hfuzz \else \cite {fuchss} \fi }{figure.50}{}}
\@writefile{toc}{\contentsline {subsection}{\numberline {5.2}Idee}{46}{subsection.5.2}}
\citation{fuchss}
\citation{fuchss}
\citation{fuchss}
\citation{fuchss}
\@writefile{lof}{\contentsline {figure}{\numberline {51}{\ignorespaces Middleware \cite  {fuchss} }}{47}{figure.51}}
\newlabel{fig:exk2}{{51}{47}{Middleware \ifx \hfuzz fuchss\hfuzz \else \cite {fuchss} \fi }{figure.51}{}}
\citation{fuchss}
\citation{fuchss}
\citation{fuchss}
\citation{fuchss}
\@writefile{lof}{\contentsline {figure}{\numberline {52}{\ignorespaces Eingebundene Middleware \cite  {fuchss} }}{48}{figure.52}}
\newlabel{fig:exk3}{{52}{48}{Eingebundene Middleware \ifx \hfuzz fuchss\hfuzz \else \cite {fuchss} \fi }{figure.52}{}}
\@writefile{toc}{\contentsline {subsection}{\numberline {5.3}Implementierung}{48}{subsection.5.3}}
\@writefile{toc}{\contentsline {subsubsection}{\numberline {5.3.1}Schritt 1 - Die ReST-Schnittstelle }{48}{subsubsection.5.3.1}}
\@writefile{lof}{\contentsline {figure}{\numberline {53}{\ignorespaces Die ReST-Schnittstelle \cite  {fuchss} }}{48}{figure.53}}
\newlabel{fig:exk_rest}{{53}{48}{Die ReST-Schnittstelle \ifx \hfuzz fuchss\hfuzz \else \cite {fuchss} \fi }{figure.53}{}}
\citation{fuchss}
\citation{fuchss}
\citation{fuchss}
\citation{fuchss}
\@writefile{lof}{\contentsline {figure}{\numberline {54}{\ignorespaces Client ReST-Schnittstelle \cite  {fuchss} }}{49}{figure.54}}
\newlabel{fig:exk_rest2}{{54}{49}{Client ReST-Schnittstelle \ifx \hfuzz fuchss\hfuzz \else \cite {fuchss} \fi }{figure.54}{}}
\@writefile{lof}{\contentsline {figure}{\numberline {55}{\ignorespaces Server ReST-Schnittstelle \cite  {fuchss} }}{49}{figure.55}}
\newlabel{fig:exk_rest3}{{55}{49}{Server ReST-Schnittstelle \ifx \hfuzz fuchss\hfuzz \else \cite {fuchss} \fi }{figure.55}{}}
\@writefile{toc}{\contentsline {subsubsection}{\numberline {5.3.2}Schritt 2 - Optimierung }{49}{subsubsection.5.3.2}}
\citation{fuchss}
\citation{fuchss}
\citation{fuchss}
\citation{fuchss}
\@writefile{toc}{\contentsline {paragraph}{\numberline {5.3.2.1}Schritt 2.1 - Cache (Server)}{50}{paragraph.5.3.2.1}}
\@writefile{lof}{\contentsline {figure}{\numberline {56}{\ignorespaces Server-Cache \cite  {fuchss} }}{50}{figure.56}}
\newlabel{fig:exk_rest4}{{56}{50}{Server-Cache \ifx \hfuzz fuchss\hfuzz \else \cite {fuchss} \fi }{figure.56}{}}
\@writefile{toc}{\contentsline {paragraph}{\numberline {5.3.2.2}Schritt 2.2 - Cache (Client)}{50}{paragraph.5.3.2.2}}
\@writefile{lof}{\contentsline {figure}{\numberline {57}{\ignorespaces Client-Cache \cite  {fuchss} }}{50}{figure.57}}
\newlabel{fig:exk_rest5}{{57}{50}{Client-Cache \ifx \hfuzz fuchss\hfuzz \else \cite {fuchss} \fi }{figure.57}{}}
\citation{fuchss}
\citation{fuchss}
\@writefile{toc}{\contentsline {paragraph}{\numberline {5.3.2.3}Schritt 2.3 - Optimierung}{51}{paragraph.5.3.2.3}}
\@writefile{lof}{\contentsline {figure}{\numberline {58}{\ignorespaces Optimierung \cite  {fuchss} }}{51}{figure.58}}
\newlabel{fig:exk_rest6}{{58}{51}{Optimierung \ifx \hfuzz fuchss\hfuzz \else \cite {fuchss} \fi }{figure.58}{}}
\@writefile{toc}{\contentsline {subsection}{\numberline {5.4}Endergebnis - Big Picture}{51}{subsection.5.4}}
\@writefile{lof}{\contentsline {figure}{\numberline {59}{\ignorespaces Das Gesamtbild \cite  {fuchss} }}{52}{figure.59}}
\newlabel{fig:exk_rest_final}{{59}{52}{Das Gesamtbild \ifx \hfuzz fuchss\hfuzz \else \cite {fuchss} \fi }{figure.59}{}}
\citation{fuchss}
\citation{fuchss}
\@writefile{toc}{\contentsline {section}{\numberline {6}Signal\IeC {\"u}bertragung}{53}{section.6}}
\@writefile{toc}{\contentsline {subsection}{\numberline {6.1}Referenzmodell }{53}{subsection.6.1}}
\@writefile{lof}{\contentsline {figure}{\numberline {60}{\ignorespaces Referenz- bzw. Schichtenmodell \cite  {fuchss}}}{53}{figure.60}}
\newlabel{fig:osi}{{60}{53}{Referenz- bzw. Schichtenmodell \cite {fuchss}}{figure.60}{}}
\citation{fuchss}
\citation{fuchss}
\citation{fuchss}
\citation{fuchss}
\@writefile{toc}{\contentsline {subsection}{\numberline {6.2}Signaltypen}{54}{subsection.6.2}}
\@writefile{lof}{\contentsline {figure}{\numberline {61}{\ignorespaces Analoge und digitale Signale \cite  {fuchss}}}{54}{figure.61}}
\newlabel{fig:signals}{{61}{54}{Analoge und digitale Signale \cite {fuchss}}{figure.61}{}}
\@writefile{toc}{\contentsline {subsection}{\numberline {6.3}Analoge Modulationsverfahren }{54}{subsection.6.3}}
\citation{fuchss}
\citation{fuchss}
\@writefile{toc}{\contentsline {subsubsection}{\numberline {6.3.1}Amplitudenmodulation}{55}{subsubsection.6.3.1}}
\@writefile{lof}{\contentsline {figure}{\numberline {62}{\ignorespaces Amplitudenmodulation \cite  {fuchss}}}{55}{figure.62}}
\newlabel{fig:ampmod}{{62}{55}{Amplitudenmodulation \cite {fuchss}}{figure.62}{}}
\@writefile{toc}{\contentsline {subsubsection}{\numberline {6.3.2}Frequenz- und Phasenmodulation}{55}{subsubsection.6.3.2}}
\@writefile{lof}{\contentsline {figure}{\numberline {63}{\ignorespaces Frequenz- und Phasenmodulation \cite  {fuchss}}}{55}{figure.63}}
\newlabel{fig:freqphasemod}{{63}{55}{Frequenz- und Phasenmodulation \cite {fuchss}}{figure.63}{}}
\citation{dsplog}
\citation{dsplog}
\citation{wikipedia}
\citation{wikipedia}
\citation{wikipedia}
\citation{wikipedia}
\@writefile{toc}{\contentsline {subsection}{\numberline {6.4}Digitale Modulationsverfahren }{56}{subsection.6.4}}
\@writefile{lof}{\contentsline {figure}{\numberline {64}{\ignorespaces Vergleich der Fehlerrate zwischen PSK und QAM \cite  {dsplog}}}{56}{figure.64}}
\newlabel{fig:vergleich_psk_qam}{{64}{56}{Vergleich der Fehlerrate zwischen PSK und QAM \cite {dsplog}}{figure.64}{}}
\@writefile{toc}{\contentsline {subsubsection}{\numberline {6.4.1}QPSK }{56}{subsubsection.6.4.1}}
\@writefile{lof}{\contentsline {figure}{\numberline {65}{\ignorespaces QPSK \cite  {wikipedia}}}{56}{figure.65}}
\newlabel{fig:qpsk}{{65}{56}{QPSK \cite {wikipedia}}{figure.65}{}}
\@writefile{toc}{\contentsline {subsubsection}{\numberline {6.4.2}QAM }{57}{subsubsection.6.4.2}}
\@writefile{lof}{\contentsline {figure}{\numberline {66}{\ignorespaces 16QAM \cite  {wikipedia}}}{57}{figure.66}}
\newlabel{fig:16qam}{{66}{57}{16QAM \cite {wikipedia}}{figure.66}{}}
\citation{fuchss}
\citation{fuchss}
\@writefile{toc}{\contentsline {section}{\numberline {7}Multiplexverfahren }{58}{section.7}}
\@writefile{toc}{\contentsline {subsection}{\numberline {7.1}Signalausbreitung }{58}{subsection.7.1}}
\@writefile{lof}{\contentsline {figure}{\numberline {67}{\ignorespaces Signalausbreitung \cite  {fuchss}}}{58}{figure.67}}
\newlabel{fig:signal_spread}{{67}{58}{Signalausbreitung \cite {fuchss}}{figure.67}{}}
\citation{fuchss}
\citation{fuchss}
\citation{fuchss}
\citation{fuchss}
\citation{pixabay}
\citation{pixabay}
\@writefile{toc}{\contentsline {subsection}{\numberline {7.2}Zugriffsproblematik }{59}{subsection.7.2}}
\@writefile{lof}{\contentsline {figure}{\numberline {68}{\ignorespaces Signalparameter \cite  {fuchss}}}{59}{figure.68}}
\newlabel{fig:signal_parameters}{{68}{59}{Signalparameter \cite {fuchss}}{figure.68}{}}
\@writefile{toc}{\contentsline {subsection}{\numberline {7.3}SDMA }{59}{subsection.7.3}}
\@writefile{lof}{\contentsline {figure}{\numberline {69}{\ignorespaces Allgemeine Darstellung von SDMA \cite  {fuchss}}}{59}{figure.69}}
\newlabel{fig:sdma_general}{{69}{59}{Allgemeine Darstellung von SDMA \cite {fuchss}}{figure.69}{}}
\@writefile{lof}{\contentsline {figure}{\numberline {70}{\ignorespaces SDMA (einige Inhalte von \cite  {pixabay})}}{60}{figure.70}}
\newlabel{fig:sdma}{{70}{60}{SDMA (einige Inhalte von \cite {pixabay})}{figure.70}{}}
\@writefile{toc}{\contentsline {subsection}{\numberline {7.4}TDMA }{60}{subsection.7.4}}
\citation{fuchss}
\citation{fuchss}
\@writefile{lof}{\contentsline {figure}{\numberline {71}{\ignorespaces TDMA}}{61}{figure.71}}
\newlabel{fig:tdma}{{71}{61}{TDMA}{figure.71}{}}
\@writefile{toc}{\contentsline {subsubsection}{\numberline {7.4.1}ALOHA }{61}{subsubsection.7.4.1}}
\@writefile{lof}{\contentsline {figure}{\numberline {72}{\ignorespaces ALOHA basierend auf TDMA \cite  {fuchss}}}{61}{figure.72}}
\newlabel{fig:aloha_tdma}{{72}{61}{ALOHA basierend auf TDMA \cite {fuchss}}{figure.72}{}}
\@writefile{toc}{\contentsline {subsection}{\numberline {7.5}FDMA }{62}{subsection.7.5}}
\@writefile{lof}{\contentsline {figure}{\numberline {73}{\ignorespaces FDMA}}{62}{figure.73}}
\newlabel{fig:fdma}{{73}{62}{FDMA}{figure.73}{}}
\@writefile{lof}{\contentsline {figure}{\numberline {74}{\ignorespaces FDMA Variante}}{62}{figure.74}}
\newlabel{fig:fdma_variant}{{74}{62}{FDMA Variante}{figure.74}{}}
\@writefile{toc}{\contentsline {subsection}{\numberline {7.6}OFDMA }{63}{subsection.7.6}}
\@writefile{toc}{\contentsline {subsection}{\numberline {7.7}FHSS }{63}{subsection.7.7}}
\@writefile{lof}{\contentsline {figure}{\numberline {75}{\ignorespaces FHSS}}{63}{figure.75}}
\newlabel{fig:fhss}{{75}{63}{FHSS}{figure.75}{}}
\citation{fuchss}
\citation{fuchss}
\@writefile{toc}{\contentsline {subsection}{\numberline {7.8}CDMA }{64}{subsection.7.8}}
\@writefile{toc}{\contentsline {subsubsection}{\numberline {7.8.1}DSSS - Direct Sequence Spread Spectrum }{64}{subsubsection.7.8.1}}
\@writefile{lof}{\contentsline {figure}{\numberline {76}{\ignorespaces DSSS - Nutzdaten und Chip-Sequenz ergeben Signal \cite  {fuchss}}}{64}{figure.76}}
\newlabel{fig:dsss}{{76}{64}{DSSS - Nutzdaten und Chip-Sequenz ergeben Signal \cite {fuchss}}{figure.76}{}}
\@writefile{toc}{\contentsline {paragraph}{\numberline {7.8.1.1}Berechnung}{65}{paragraph.7.8.1.1}}
\@writefile{toc}{\contentsline {paragraph}{\numberline {7.8.1.2}Beispiel}{65}{paragraph.7.8.1.2}}
\citation{fuchss}
\citation{fuchss}
\citation{fuchss}
\citation{fuchss}
\@writefile{toc}{\contentsline {subsubsection}{\numberline {7.8.2}OVSF Spreizcodegenerierung }{66}{subsubsection.7.8.2}}
\@writefile{lof}{\contentsline {figure}{\numberline {77}{\ignorespaces Spreizcodegenerierung \cite  {fuchss}}}{66}{figure.77}}
\newlabel{fig:spreizcode_generierung}{{77}{66}{Spreizcodegenerierung \cite {fuchss}}{figure.77}{}}
\@writefile{toc}{\contentsline {subsubsection}{\numberline {7.8.3}OVSF Spreizfaktor}{67}{subsubsection.7.8.3}}
\@writefile{lof}{\contentsline {figure}{\numberline {78}{\ignorespaces Spreizfaktor \cite  {fuchss}}}{67}{figure.78}}
\newlabel{fig:spreizfaktor}{{78}{67}{Spreizfaktor \cite {fuchss}}{figure.78}{}}
\@writefile{toc}{\contentsline {section}{\numberline {8}Mobilfunknetze}{68}{section.8}}
\@writefile{toc}{\contentsline {subsection}{\numberline {8.1}GSM }{68}{subsection.8.1}}
\@writefile{toc}{\contentsline {subsubsection}{\numberline {8.1.1}Fakten}{68}{subsubsection.8.1.1}}
\@writefile{toc}{\contentsline {subsubsection}{\numberline {8.1.2}Weiterentwicklungen}{68}{subsubsection.8.1.2}}
\@writefile{toc}{\contentsline {subsubsection}{\numberline {8.1.3}Innovationen }{68}{subsubsection.8.1.3}}
\@writefile{toc}{\contentsline {subsubsection}{\numberline {8.1.4}Zusammenh\IeC {\"a}nge }{69}{subsubsection.8.1.4}}
\citation{fuchss}
\citation{fuchss}
\@writefile{lof}{\contentsline {figure}{\numberline {79}{\ignorespaces Aufbau des GSM-Netzes}}{70}{figure.79}}
\newlabel{fig:gsm_architecture}{{79}{70}{Aufbau des GSM-Netzes}{figure.79}{}}
\@writefile{toc}{\contentsline {subsubsection}{\numberline {8.1.5}Funkverkehr }{70}{subsubsection.8.1.5}}
\citation{fuchss}
\citation{fuchss}
\citation{fuchss}
\citation{fuchss}
\@writefile{lof}{\contentsline {figure}{\numberline {80}{\ignorespaces Up-/Downlink bei GSM \cite  {fuchss}}}{71}{figure.80}}
\newlabel{fig:gsm_updown}{{80}{71}{Up-/Downlink bei GSM \cite {fuchss}}{figure.80}{}}
\@writefile{toc}{\contentsline {subsubsection}{\numberline {8.1.6}Frequenzplanung }{71}{subsubsection.8.1.6}}
\@writefile{lof}{\contentsline {figure}{\numberline {81}{\ignorespaces GSM-Netz Wabenstruktur Idealfall \cite  {fuchss}}}{71}{figure.81}}
\newlabel{fig:gsm_wabe}{{81}{71}{GSM-Netz Wabenstruktur Idealfall \cite {fuchss}}{figure.81}{}}
\@writefile{lof}{\contentsline {figure}{\numberline {82}{\ignorespaces GSM-Netz Wabenstruktur Realit\IeC {\"a}t \cite  {fuchss}}}{72}{figure.82}}
\newlabel{fig:gsm_wabe_real}{{82}{72}{GSM-Netz Wabenstruktur Realität \cite {fuchss}}{figure.82}{}}
\@writefile{toc}{\contentsline {subsubsection}{\numberline {8.1.7}GPRS - Erweiterung f\IeC {\"u}r mobiles Internet }{72}{subsubsection.8.1.7}}
\@writefile{lof}{\contentsline {figure}{\numberline {83}{\ignorespaces GSM-Netz mit GPRS}}{72}{figure.83}}
\newlabel{fig:gsm_gprs}{{83}{72}{GSM-Netz mit GPRS}{figure.83}{}}
\@writefile{toc}{\contentsline {subsection}{\numberline {8.2}UMTS }{73}{subsection.8.2}}
\@writefile{lof}{\contentsline {figure}{\numberline {84}{\ignorespaces UMTS Aufbau und Zusammenh\IeC {\"a}nge}}{74}{figure.84}}
\newlabel{fig:umts_aufbau}{{84}{74}{UMTS Aufbau und Zusammenhänge}{figure.84}{}}
\citation{fuchss}
\citation{fuchss}
\@writefile{toc}{\contentsline {subsubsection}{\numberline {8.2.1}Big Picture - Integration Infrastruktur}{75}{subsubsection.8.2.1}}
\@writefile{lof}{\contentsline {figure}{\numberline {85}{\ignorespaces UMTS Integration in das bestehende Mobilfunknetz}}{75}{figure.85}}
\newlabel{fig:umts_big_picture}{{85}{75}{UMTS Integration in das bestehende Mobilfunknetz}{figure.85}{}}
\@writefile{toc}{\contentsline {subsubsection}{\numberline {8.2.2}Betriebsmodi }{75}{subsubsection.8.2.2}}
\@writefile{toc}{\contentsline {paragraph}{\numberline {8.2.2.1}UTRA/FDD - Frequency Division Duplex}{75}{paragraph.8.2.2.1}}
\citation{fuchss}
\citation{fuchss}
\@writefile{lof}{\contentsline {figure}{\numberline {86}{\ignorespaces FDD mit Super-Rahmenbreite 70ms \cite  {fuchss}}}{76}{figure.86}}
\newlabel{fig:umts_fdd}{{86}{76}{FDD mit Super-Rahmenbreite 70ms \cite {fuchss}}{figure.86}{}}
\@writefile{toc}{\contentsline {paragraph}{\numberline {8.2.2.2}UTRA/TDD - Time Division Duplex}{76}{paragraph.8.2.2.2}}
\citation{fuchss}
\citation{fuchss}
\@writefile{lof}{\contentsline {figure}{\numberline {87}{\ignorespaces TDD mit Rahmenbreite 10ms \cite  {fuchss}}}{77}{figure.87}}
\newlabel{fig:umts_tdd}{{87}{77}{TDD mit Rahmenbreite 10ms \cite {fuchss}}{figure.87}{}}
\@writefile{toc}{\contentsline {subsubsection}{\numberline {8.2.3}Macro Diversity }{77}{subsubsection.8.2.3}}
\@writefile{lof}{\contentsline {figure}{\numberline {88}{\ignorespaces Makro-Diversit\IeC {\"a}t bei UMTS \cite  {fuchss}}}{77}{figure.88}}
\newlabel{fig:umts_macro_diversity}{{88}{77}{Makro-Diversität bei UMTS \cite {fuchss}}{figure.88}{}}
\citation{fuchss}
\citation{fuchss}
\@writefile{toc}{\contentsline {subsubsection}{\numberline {8.2.4}Zellatmung GSM vs. UMTS }{78}{subsubsection.8.2.4}}
\@writefile{lof}{\contentsline {figure}{\numberline {89}{\ignorespaces Zellatmung bei UMTS \textit  {umtslink.at}}}{78}{figure.89}}
\newlabel{fig:umts_cell_breathing}{{89}{78}{Zellatmung bei UMTS \textit {umtslink.at}}{figure.89}{}}
\@writefile{toc}{\contentsline {subsection}{\numberline {8.3}LTE }{78}{subsection.8.3}}
\citation{wikipedia}
\citation{wikipedia}
\@writefile{lof}{\contentsline {figure}{\numberline {90}{\ignorespaces LTE Rahmenaufbau \cite  {fuchss}}}{79}{figure.90}}
\newlabel{fig:lte_rahmen}{{90}{79}{LTE Rahmenaufbau \cite {fuchss}}{figure.90}{}}
\@writefile{toc}{\contentsline {subsection}{\numberline {8.4}Leistungsvergleich Mobilfunktechnologien }{79}{subsection.8.4}}
\@writefile{lof}{\contentsline {figure}{\numberline {91}{\ignorespaces Leistungsvergleich von Mobilfunktechnologien \cite  {wikipedia}}}{79}{figure.91}}
\newlabel{fig:netze_leistungsvergleich}{{91}{79}{Leistungsvergleich von Mobilfunktechnologien \cite {wikipedia}}{figure.91}{}}
\bibstyle{alphadin}
\citation{*}
\bibdata{./Inhalt/BibTex/Bibliothek}
\bibcite{adisoft}{{Adi}{}{{}}{{}}}
\bibcite{cohlab}{{coh}{}{{}}{{}}}
\bibcite{droidlife}{{dro}{}{{}}{{}}}
\bibcite{dsplog}{{dsp}{}{{}}{{}}}
\bibcite{duden}{{Dud}{}{{}}{{}}}
\bibcite{fipa}{{fip}{}{{}}{{}}}
\bibcite{fuchss}{{Fuc16}{}{{}}{{}}}
\bibcite{master}{{Kar}{}{{}}{{}}}
\bibcite{peeple}{{pee}{}{{}}{{}}}
\bibcite{pixabay}{{Pix16}{}{{}}{{}}}
\bibcite{wikipedia}{{Wik16}{}{{}}{{}}}
\@writefile{toc}{\contentsline {section}{Literaturverzeichnis}{80}{section*.2}}
\@writefile{toc}{\contentsline {section}{Index}{81}{section*.3}}
\providecommand\NAT@force@numbers{}\NAT@force@numbers
